Statistics for Mixed Effects Models • sjstats
…
See ?is_singular and ?lme4::isSingular for further details.

Rescale model weights for complex samples

Most functions to fit multilevel and mixed effects models only allow to specify frequency weights, but not design (i.e. sampling or probability) weights, which should be used when analyzing complex samples and survey data.

scale_weights() implements an algorithm proposed by Aaparouhov (2006) and Carle (2009) to rescale design weights in survey data to account for the grouping structure of multilevel models, which then can be used for multilevel modelling.

To calculate a weight-vector that can be used in multilevel models, scale_weights() needs the data frame with survey data as x-argument. This data frame should contain 1) a cluster ID (argument cluster.id), which represents the strata of the survey data (the level-2-cluster variable) and 2) the probability weights (argument pweight), which represents the design or sampling weights of the survey data (level-1-weight).

scale_weights() then returns the original data frame, including two new variables: svywght_a, where the sample weights pweight are adjusted by a factor that represents the proportion of cluster size divided by the sum of sampling weights within each cluster. The adjustment factor for svywght_b is the sum of sample weights within each cluster devided by the sum of squared sample weights within each cluster (see Carle (2009), Appendix B, for details).

data(nhanes_sample)
scale_weights(nhanes_sample, SDMVSTRA, WTINT2YR)
#> # A tibble: 2,992 x 9
#>    total   age RIAGENDR RIDRETH1 SDMVPSU SDMVSTRA WTINT2YR svywght_a svywght_b
#>    <dbl> <dbl>    <dbl>    <dbl>   <dbl>    <dbl>    <dbl>     <dbl>     <dbl>
#>  1     1  2.2         1        3       2       31   97594.     1.57      1.20 
#>  2     7  2.08        2        3       1       29   39599.     0.623     0.525
#>  3     3  1.48        2        1       2       42   26620.     0.898     0.544
#>  4     4  1.32        2        4       2       33   34999.     0.708     0.550
#>  5     1  2           2        1       1       41   14746.     0.422     0.312
#>  6     6  2.2         2        4       1       38   28232.     0.688     0.516
#>  7   350  1.6         1        3       2       33   93162.     1.89      1.46 
#>  8    NA  1.48        2        3       1       29   82276.     1.29      1.09 
#>  9     3  2.28        2        4       1       41   24726.     0.707     0.523
#> 10    30  0.84        1        3       2       35   39895.     0.760     0.594
#> # ... with 2,982 more rows
…
