Check model assumptions — check_assumptions • sjstats
…
# apply function to multiple models in list-variable
library(purrr)
library(dplyr)
tmp <- efc %>%
  bootstrap(50) %>%
  mutate(
    models = map(strap, ~lm(neg_c_7 ~ e42dep + c12hour + c161sex, data = .x))
  )

# for list-variables, argument 'model.column' is the
# quoted name of the list-variable with fitted models
tmp %>% normality("models")
#> # A tibble: 50 x 1
#>    non.normality
#>            <dbl>
#>  1      3.58e-19
#>  2      4.13e-16
#>  3      8.16e-22
#>  4      9.24e-19
#>  5      6.11e-18
#>  6      3.62e-20
#>  7      2.33e-19
#>  8      9.11e-17
#>  9      2.30e-19
#> 10      1.01e-20
#> # ... with 40 more rows
tmp %>% heteroskedastic("models")
#> # A tibble: 50 x 1
#>    heteroskedastic
#>              <dbl>
#>  1        9.37e- 7
#>  2        2.96e-16
#>  3        2.20e-11
#>  4        2.07e-13
#>  5        3.61e- 9
#>  6        2.07e- 6
#>  7        2.34e- 6
#>  8        6.22e-11
#>  9        2.08e- 5
#> 10        8.68e-12
#> # ... with 40 more rows
…
