Rescale design weights for multilevel analysis — scale_weights • sjstats
…
   The cluster ID and probably PSU may be used as random effects (e.g.
   nested design, or cluster and PSU as varying intercepts), depending
   on the survey design that should be mimicked.

    References

    Carle AC. Fitting multilevel models in complex survey data with design weights: Recommendations BMC Medical Research Methodology 2009, 9(49): 1-13

   Asparouhov T. General Multi-Level Modeling with Sampling Weights Communications in Statistics - Theory and Methods 2006, 35: 439-460

    Examples

data(nhanes_sample)
scale_weights(nhanes_sample, SDMVSTRA, WTINT2YR)
#> # A tibble: 2,992 x 9
#>    total   age RIAGENDR RIDRETH1 SDMVPSU SDMVSTRA WTINT2YR svywght_a svywght_b
#>    <dbl> <dbl>    <dbl>    <dbl>   <dbl>    <dbl>    <dbl>     <dbl>     <dbl>
#>  1     1  2.2         1        3       2       31   97594.     1.57      1.20 
#>  2     7  2.08        2        3       1       29   39599.     0.623     0.525
#>  3     3  1.48        2        1       2       42   26620.     0.898     0.544
#>  4     4  1.32        2        4       2       33   34999.     0.708     0.550
#>  5     1  2           2        1       1       41   14746.     0.422     0.312
#>  6     6  2.2         2        4       1       38   28232.     0.688     0.516
#>  7   350  1.6         1        3       2       33   93162.     1.89      1.46 
#>  8    NA  1.48        2        3       1       29   82276.     1.29      1.09 
#>  9     3  2.28        2        4       1       41   24726.     0.707     0.523
#> 10    30  0.84        1        3       2       35   39895.     0.760     0.594
#> # ... with 2,982 more rows
…
